%!PS-Adobe-3.0 EPSF-3.0 
%%BoundingBox: 0 0 544 264
%%Pages: 0
%%Creator: Sun Microsystems, Inc.
%%Title: none
%%CreationDate: none
%%LanguageLevel: 2
%%EndComments
%%BeginProlog
%%BeginResource: procset SDRes-Prolog 1.0 0
/b4_inc_state save def
/dict_count countdictstack def
/op_count count 1 sub def
userdict begin
0 setgray 0 setlinecap 1 setlinewidth 0 setlinejoin 10 setmiterlimit[] 0 setdash newpath
/languagelevel where {pop languagelevel 1 ne {false setstrokeadjust false setoverprint} if} if
/bdef {bind def} bind def
/c {setrgbcolor} bdef
/l {neg lineto} bdef
/rl {neg rlineto} bdef
/lc {setlinecap} bdef
/lj {setlinejoin} bdef
/lw {setlinewidth} bdef
/ml {setmiterlimit} bdef
/ld {setdash} bdef
/m {neg moveto} bdef
/ct {6 2 roll neg 6 2 roll neg 6 2 roll neg curveto} bdef
/r {rotate} bdef
/t {neg translate} bdef
/s {scale} bdef
/sw {show} bdef
/gs {gsave} bdef
/gr {grestore} bdef
/f {findfont dup length dict begin
{1 index /FID ne {def} {pop pop} ifelse} forall /Encoding ISOLatin1Encoding def
currentdict end /NFont exch definefont pop /NFont findfont} bdef
/p {closepath} bdef
/sf {scalefont setfont} bdef
/ef {eofill}bdef
/pc {closepath stroke}bdef
/ps {stroke}bdef
/pum {matrix currentmatrix}bdef
/pom {setmatrix}bdef
/bs {/aString exch def /nXOfs exch def /nWidth exch def currentpoint nXOfs 0 rmoveto pum nWidth aString stringwidth pop div 1 scale aString show pom moveto} bdef
%%EndResource
%%EndProlog
%%BeginSetup
%%EndSetup
%%Page: 1 1
%%BeginPageSetup
%%EndPageSetup
pum
0.02832 0.02833 s 
0 -9316 t
/tm matrix currentmatrix def
tm setmatrix
-1198 -1542 t 
1 1 s 
1.000 1.000 1.000 c 1199 9837 m  3612 9837 l  3612 10854 l  1199 10854 l 
1199 9837 l  1199 9837 l  p ef
0 lw 1 lj 0.003 0.003 0.003 c 1198 9836 m  3612 9836 l  3612 10853 l  1198 10853 l 
1198 9836 l  1198 9836 l  pc
pum
1559 10566 t
115 0 m  53 0 l  53 -454 l  119 -454 l  344 -108 l  344 -454 l  406 -454 l 
406 0 l  340 0 l  115 -346 l  115 0 l  p ef
790 0 m  512 0 l  512 -454 l  574 -454 l  574 -53 l  790 -53 l  790 0 l 
p ef
843 -154 m  905 -154 l  907 -130 913 -111 922 -95 ct 932 -80 946 -68 966 -58 ct 
985 -49 1007 -44 1032 -44 ct 1053 -44 1072 -48 1089 -55 ct 1106 -62 1118 -72 1126 -84 ct 
1134 -97 1138 -110 1138 -124 ct 1138 -138 1135 -150 1128 -160 ct 1122 -171 1109 -179 1091 -187 ct 
1079 -191 1053 -199 1013 -209 ct 973 -219 944 -229 927 -238 ct 905 -249 888 -263 877 -280 ct 
866 -297 861 -316 861 -337 ct 861 -360 867 -382 880 -402 ct 893 -422 912 -437 937 -447 ct 
962 -458 990 -463 1020 -463 ct 1054 -463 1084 -458 1110 -447 ct 1135 -436 1155 -420 1169 -398 ct 
1183 -377 1190 -353 1191 -326 ct 1130 -326 l  1127 -354 1116 -375 1099 -389 ct 
1082 -403 1057 -410 1023 -410 ct 988 -410 962 -403 946 -390 ct 930 -377 922 -360 922 -341 ct 
922 -325 928 -311 939 -301 ct 950 -290 980 -279 1027 -268 ct 1074 -257 1106 -247 1124 -239 ct 
1150 -227 1169 -211 1181 -192 ct 1194 -174 1200 -152 1200 -128 ct 1200 -103 1193 -81 1180 -59 ct 
1166 -38 1146 -21 1121 -9 ct 1095 3 1066 9 1034 9 ct 994 9 960 2 932 -10 ct 905 -23 883 -42 868 -68 ct 
852 -93 844 -122 843 -154 ct p ef
1350 0 m  1288 0 l  1288 -454 l  1485 -454 l  1524 -454 1554 -450 1574 -442 ct 
1594 -434 1610 -420 1623 -399 ct 1635 -378 1641 -356 1641 -331 ct 1641 -298 1631 -271 1611 -249 ct 
1591 -227 1560 -213 1518 -207 ct 1533 -200 1545 -192 1552 -185 ct 1569 -168 1585 -148 1600 -124 ct 
1676 0 l  1604 0 l  1546 -95 l  1529 -122 1515 -143 1504 -158 ct 1494 -172 1484 -182 1475 -188 ct 
1466 -194 1458 -198 1449 -201 ct 1442 -202 1432 -203 1417 -203 ct 1350 -203 l 
1350 0 l  p
1350 -401 m  1350 -256 l  1474 -256 l  1500 -256 1521 -259 1535 -264 ct 1549 -270 1560 -278 1568 -290 ct 
1575 -303 1579 -316 1579 -330 ct 1579 -351 1572 -368 1557 -381 ct 1542 -395 1519 -401 1488 -401 ct 
1350 -401 l  p ef
pom

1.000 1.000 1.000 c 4019 9838 m  6433 9838 l  6433 10855 l  4019 10855 l 
4019 9838 l  4019 9838 l  p ef
0.003 0.003 0.003 c 4019 9837 m  6432 9837 l  6432 10854 l  4019 10854 l  4019 9837 l 
4019 9837 l  pc
pum
4379 10567 t
115 0 m  53 0 l  53 -454 l  119 -454 l  344 -108 l  344 -454 l  406 -454 l 
406 0 l  340 0 l  115 -346 l  115 0 l  p ef
790 0 m  512 0 l  512 -454 l  574 -454 l  574 -53 l  790 -53 l  790 0 l 
p ef
843 -154 m  905 -154 l  907 -130 913 -111 922 -95 ct 932 -80 946 -68 966 -58 ct 
985 -49 1007 -44 1032 -44 ct 1053 -44 1072 -48 1089 -55 ct 1106 -62 1118 -72 1126 -84 ct 
1134 -97 1138 -110 1138 -124 ct 1138 -138 1135 -150 1128 -160 ct 1122 -171 1109 -179 1091 -187 ct 
1079 -191 1053 -199 1013 -209 ct 973 -219 944 -229 927 -238 ct 905 -249 888 -263 877 -280 ct 
866 -297 861 -316 861 -337 ct 861 -360 867 -382 880 -402 ct 893 -422 912 -437 937 -447 ct 
962 -458 990 -463 1020 -463 ct 1054 -463 1084 -458 1110 -447 ct 1135 -436 1155 -420 1169 -398 ct 
1183 -377 1190 -353 1191 -326 ct 1130 -326 l  1127 -354 1116 -375 1099 -389 ct 
1082 -403 1057 -410 1023 -410 ct 988 -410 962 -403 946 -390 ct 930 -377 922 -360 922 -341 ct 
922 -325 928 -311 939 -301 ct 950 -290 980 -279 1027 -268 ct 1074 -257 1106 -247 1124 -239 ct 
1150 -227 1169 -211 1181 -192 ct 1194 -174 1200 -152 1200 -128 ct 1200 -103 1193 -81 1180 -59 ct 
1166 -38 1146 -21 1121 -9 ct 1095 3 1066 9 1034 9 ct 994 9 960 2 932 -10 ct 905 -23 883 -42 868 -68 ct 
852 -93 844 -122 843 -154 ct p ef
1350 0 m  1288 0 l  1288 -454 l  1485 -454 l  1524 -454 1554 -450 1574 -442 ct 
1594 -434 1610 -420 1623 -399 ct 1635 -378 1641 -356 1641 -331 ct 1641 -298 1631 -271 1611 -249 ct 
1591 -227 1560 -213 1518 -207 ct 1533 -200 1545 -192 1552 -185 ct 1569 -168 1585 -148 1600 -124 ct 
1676 0 l  1604 0 l  1546 -95 l  1529 -122 1515 -143 1504 -158 ct 1494 -172 1484 -182 1475 -188 ct 
1466 -194 1458 -198 1449 -201 ct 1442 -202 1432 -203 1417 -203 ct 1350 -203 l 
1350 0 l  p
1350 -401 m  1350 -256 l  1474 -256 l  1500 -256 1521 -259 1535 -264 ct 1549 -270 1560 -278 1568 -290 ct 
1575 -303 1579 -316 1579 -330 ct 1579 -351 1572 -368 1557 -381 ct 1542 -395 1519 -401 1488 -401 ct 
1350 -401 l  p ef
pom

1.000 1.000 1.000 c 6813 9838 m  9227 9838 l  9227 10855 l  6813 10855 l 
6813 9838 l  6813 9838 l  p ef
0.003 0.003 0.003 c 6812 9837 m  9226 9837 l  9226 10854 l  6812 10854 l  6812 9837 l 
6812 9837 l  pc
pum
7173 10567 t
115 0 m  53 0 l  53 -454 l  119 -454 l  344 -108 l  344 -454 l  406 -454 l 
406 0 l  340 0 l  115 -346 l  115 0 l  p ef
790 0 m  512 0 l  512 -454 l  574 -454 l  574 -53 l  790 -53 l  790 0 l 
p ef
843 -154 m  905 -154 l  907 -130 913 -111 922 -95 ct 932 -80 946 -68 966 -58 ct 
985 -49 1007 -44 1032 -44 ct 1053 -44 1072 -48 1089 -55 ct 1106 -62 1118 -72 1126 -84 ct 
1134 -97 1138 -110 1138 -124 ct 1138 -138 1135 -150 1128 -160 ct 1122 -171 1109 -179 1091 -187 ct 
1079 -191 1053 -199 1013 -209 ct 973 -219 944 -229 927 -238 ct 905 -249 888 -263 877 -280 ct 
866 -297 861 -316 861 -337 ct 861 -360 867 -382 880 -402 ct 893 -422 912 -437 937 -447 ct 
962 -458 990 -463 1020 -463 ct 1054 -463 1084 -458 1110 -447 ct 1135 -436 1155 -420 1169 -398 ct 
1183 -377 1190 -353 1191 -326 ct 1130 -326 l  1127 -354 1116 -375 1099 -389 ct 
1082 -403 1057 -410 1023 -410 ct 988 -410 962 -403 946 -390 ct 930 -377 922 -360 922 -341 ct 
922 -325 928 -311 939 -301 ct 950 -290 980 -279 1027 -268 ct 1074 -257 1106 -247 1124 -239 ct 
1150 -227 1169 -211 1181 -192 ct 1194 -174 1200 -152 1200 -128 ct 1200 -103 1193 -81 1180 -59 ct 
1166 -38 1146 -21 1121 -9 ct 1095 3 1066 9 1034 9 ct 994 9 960 2 932 -10 ct 905 -23 883 -42 868 -68 ct 
852 -93 844 -122 843 -154 ct p ef
1350 0 m  1288 0 l  1288 -454 l  1485 -454 l  1524 -454 1554 -450 1574 -442 ct 
1594 -434 1610 -420 1623 -399 ct 1635 -378 1641 -356 1641 -331 ct 1641 -298 1631 -271 1611 -249 ct 
1591 -227 1560 -213 1518 -207 ct 1533 -200 1545 -192 1552 -185 ct 1569 -168 1585 -148 1600 -124 ct 
1676 0 l  1604 0 l  1546 -95 l  1529 -122 1515 -143 1504 -158 ct 1494 -172 1484 -182 1475 -188 ct 
1466 -194 1458 -198 1449 -201 ct 1442 -202 1432 -203 1417 -203 ct 1350 -203 l 
1350 0 l  p
1350 -401 m  1350 -256 l  1474 -256 l  1500 -256 1521 -259 1535 -264 ct 1549 -270 1560 -278 1568 -290 ct 
1575 -303 1579 -316 1579 -330 ct 1579 -351 1572 -368 1557 -381 ct 1542 -395 1519 -401 1488 -401 ct 
1350 -401 l  p ef
pom

1.000 1.000 1.000 c 9606 9837 m  12020 9837 l  12020 10854 l  9606 10854 l 
9606 9837 l  9606 9837 l  p ef
0.003 0.003 0.003 c 9606 9836 m  12020 9836 l  12020 10853 l  9606 10853 l 
9606 9836 l  9606 9836 l  pc
pum
9966 10566 t
115 0 m  53 0 l  53 -454 l  119 -454 l  344 -108 l  344 -454 l  406 -454 l 
406 0 l  340 0 l  115 -346 l  115 0 l  p ef
790 0 m  512 0 l  512 -454 l  574 -454 l  574 -53 l  790 -53 l  790 0 l 
p ef
843 -154 m  905 -154 l  907 -130 913 -111 922 -95 ct 932 -80 946 -68 966 -58 ct 
985 -49 1007 -44 1032 -44 ct 1053 -44 1072 -48 1089 -55 ct 1106 -62 1118 -72 1126 -84 ct 
1134 -97 1138 -110 1138 -124 ct 1138 -138 1135 -150 1128 -160 ct 1122 -171 1109 -179 1091 -187 ct 
1079 -191 1053 -199 1013 -209 ct 973 -219 944 -229 927 -238 ct 905 -249 888 -263 877 -280 ct 
866 -297 861 -316 861 -337 ct 861 -360 867 -382 880 -402 ct 893 -422 912 -437 937 -447 ct 
962 -458 990 -463 1020 -463 ct 1054 -463 1084 -458 1110 -447 ct 1135 -436 1155 -420 1169 -398 ct 
1183 -377 1190 -353 1191 -326 ct 1130 -326 l  1127 -354 1116 -375 1099 -389 ct 
1082 -403 1057 -410 1023 -410 ct 988 -410 962 -403 946 -390 ct 930 -377 922 -360 922 -341 ct 
922 -325 928 -311 939 -301 ct 950 -290 980 -279 1027 -268 ct 1074 -257 1106 -247 1124 -239 ct 
1150 -227 1169 -211 1181 -192 ct 1194 -174 1200 -152 1200 -128 ct 1200 -103 1193 -81 1180 -59 ct 
1166 -38 1146 -21 1121 -9 ct 1095 3 1066 9 1034 9 ct 994 9 960 2 932 -10 ct 905 -23 883 -42 868 -68 ct 
852 -93 844 -122 843 -154 ct p ef
1350 0 m  1288 0 l  1288 -454 l  1485 -454 l  1524 -454 1554 -450 1574 -442 ct 
1594 -434 1610 -420 1623 -399 ct 1635 -378 1641 -356 1641 -331 ct 1641 -298 1631 -271 1611 -249 ct 
1591 -227 1560 -213 1518 -207 ct 1533 -200 1545 -192 1552 -185 ct 1569 -168 1585 -148 1600 -124 ct 
1676 0 l  1604 0 l  1546 -95 l  1529 -122 1515 -143 1504 -158 ct 1494 -172 1484 -182 1475 -188 ct 
1466 -194 1458 -198 1449 -201 ct 1442 -202 1432 -203 1417 -203 ct 1350 -203 l 
1350 0 l  p
1350 -401 m  1350 -256 l  1474 -256 l  1500 -256 1521 -259 1535 -264 ct 1549 -270 1560 -278 1568 -290 ct 
1575 -303 1579 -316 1579 -330 ct 1579 -351 1572 -368 1557 -381 ct 1542 -395 1519 -401 1488 -401 ct 
1350 -401 l  p ef
pom

1.000 1.000 1.000 c 12400 9838 m  14814 9838 l  14814 10855 l  12400 10855 l 
12400 9838 l  12400 9838 l  p ef
0.003 0.003 0.003 c 12400 9837 m  14813 9837 l  14813 10854 l  12400 10854 l 
12400 9837 l  12400 9837 l  pc
pum
12760 10567 t
115 0 m  53 0 l  53 -454 l  119 -454 l  344 -108 l  344 -454 l  406 -454 l 
406 0 l  340 0 l  115 -346 l  115 0 l  p ef
790 0 m  512 0 l  512 -454 l  574 -454 l  574 -53 l  790 -53 l  790 0 l 
p ef
843 -154 m  905 -154 l  907 -130 913 -111 922 -95 ct 932 -80 946 -68 966 -58 ct 
985 -49 1007 -44 1032 -44 ct 1053 -44 1072 -48 1089 -55 ct 1106 -62 1118 -72 1126 -84 ct 
1134 -97 1138 -110 1138 -124 ct 1138 -138 1135 -150 1128 -160 ct 1122 -171 1109 -179 1091 -187 ct 
1079 -191 1053 -199 1013 -209 ct 973 -219 944 -229 927 -238 ct 905 -249 888 -263 877 -280 ct 
866 -297 861 -316 861 -337 ct 861 -360 867 -382 880 -402 ct 893 -422 912 -437 937 -447 ct 
962 -458 990 -463 1020 -463 ct 1054 -463 1084 -458 1110 -447 ct 1135 -436 1155 -420 1169 -398 ct 
1183 -377 1190 -353 1191 -326 ct 1130 -326 l  1127 -354 1116 -375 1099 -389 ct 
1082 -403 1057 -410 1023 -410 ct 988 -410 962 -403 946 -390 ct 930 -377 922 -360 922 -341 ct 
922 -325 928 -311 939 -301 ct 950 -290 980 -279 1027 -268 ct 1074 -257 1106 -247 1124 -239 ct 
1150 -227 1169 -211 1181 -192 ct 1194 -174 1200 -152 1200 -128 ct 1200 -103 1193 -81 1180 -59 ct 
1166 -38 1146 -21 1121 -9 ct 1095 3 1066 9 1034 9 ct 994 9 960 2 932 -10 ct 905 -23 883 -42 868 -68 ct 
852 -93 844 -122 843 -154 ct p ef
1350 0 m  1288 0 l  1288 -454 l  1485 -454 l  1524 -454 1554 -450 1574 -442 ct 
1594 -434 1610 -420 1623 -399 ct 1635 -378 1641 -356 1641 -331 ct 1641 -298 1631 -271 1611 -249 ct 
1591 -227 1560 -213 1518 -207 ct 1533 -200 1545 -192 1552 -185 ct 1569 -168 1585 -148 1600 -124 ct 
1676 0 l  1604 0 l  1546 -95 l  1529 -122 1515 -143 1504 -158 ct 1494 -172 1484 -182 1475 -188 ct 
1466 -194 1458 -198 1449 -201 ct 1442 -202 1432 -203 1417 -203 ct 1350 -203 l 
1350 0 l  p
1350 -401 m  1350 -256 l  1474 -256 l  1500 -256 1521 -259 1535 -264 ct 1549 -270 1560 -278 1568 -290 ct 
1575 -303 1579 -316 1579 -330 ct 1579 -351 1572 -368 1557 -381 ct 1542 -395 1519 -401 1488 -401 ct 
1350 -401 l  p ef
pom

1.000 1.000 1.000 c 15194 9839 m  17607 9839 l  17607 10856 l  15194 10856 l 
15194 9839 l  15194 9839 l  p ef
0.003 0.003 0.003 c 15193 9838 m  17607 9838 l  17607 10855 l  15193 10855 l 
15193 9838 l  15193 9838 l  pc
pum
15554 10568 t
115 0 m  53 0 l  53 -454 l  119 -454 l  344 -108 l  344 -454 l  406 -454 l 
406 0 l  340 0 l  115 -346 l  115 0 l  p ef
790 0 m  512 0 l  512 -454 l  574 -454 l  574 -53 l  790 -53 l  790 0 l 
p ef
843 -154 m  905 -154 l  907 -130 913 -111 922 -95 ct 932 -80 946 -68 966 -58 ct 
985 -49 1007 -44 1032 -44 ct 1053 -44 1072 -48 1089 -55 ct 1106 -62 1118 -72 1126 -84 ct 
1134 -97 1138 -110 1138 -124 ct 1138 -138 1135 -150 1128 -160 ct 1122 -171 1109 -179 1091 -187 ct 
1079 -191 1053 -199 1013 -209 ct 973 -219 944 -229 927 -238 ct 905 -249 888 -263 877 -280 ct 
866 -297 861 -316 861 -337 ct 861 -360 867 -382 880 -402 ct 893 -422 912 -437 937 -447 ct 
962 -458 990 -463 1020 -463 ct 1054 -463 1084 -458 1110 -447 ct 1135 -436 1155 -420 1169 -398 ct 
1183 -377 1190 -353 1191 -326 ct 1130 -326 l  1127 -354 1116 -375 1099 -389 ct 
1082 -403 1057 -410 1023 -410 ct 988 -410 962 -403 946 -390 ct 930 -377 922 -360 922 -341 ct 
922 -325 928 -311 939 -301 ct 950 -290 980 -279 1027 -268 ct 1074 -257 1106 -247 1124 -239 ct 
1150 -227 1169 -211 1181 -192 ct 1194 -174 1200 -152 1200 -128 ct 1200 -103 1193 -81 1180 -59 ct 
1166 -38 1146 -21 1121 -9 ct 1095 3 1066 9 1034 9 ct 994 9 960 2 932 -10 ct 905 -23 883 -42 868 -68 ct 
852 -93 844 -122 843 -154 ct p ef
1350 0 m  1288 0 l  1288 -454 l  1485 -454 l  1524 -454 1554 -450 1574 -442 ct 
1594 -434 1610 -420 1623 -399 ct 1635 -378 1641 -356 1641 -331 ct 1641 -298 1631 -271 1611 -249 ct 
1591 -227 1560 -213 1518 -207 ct 1533 -200 1545 -192 1552 -185 ct 1569 -168 1585 -148 1600 -124 ct 
1676 0 l  1604 0 l  1546 -95 l  1529 -122 1515 -143 1504 -158 ct 1494 -172 1484 -182 1475 -188 ct 
1466 -194 1458 -198 1449 -201 ct 1442 -202 1432 -203 1417 -203 ct 1350 -203 l 
1350 0 l  p
1350 -401 m  1350 -256 l  1474 -256 l  1500 -256 1521 -259 1535 -264 ct 1549 -270 1560 -278 1568 -290 ct 
1575 -303 1579 -316 1579 -330 ct 1579 -351 1572 -368 1557 -381 ct 1542 -395 1519 -401 1488 -401 ct 
1350 -401 l  p ef
pom

1.000 1.000 1.000 c 17987 9839 m  20401 9839 l  20401 10856 l  17987 10856 l 
17987 9839 l  17987 9839 l  p ef
0.003 0.003 0.003 c 17987 9838 m  20400 9838 l  20400 10855 l  17987 10855 l 
17987 9838 l  17987 9838 l  pc
pum
18347 10568 t
115 0 m  53 0 l  53 -454 l  119 -454 l  344 -108 l  344 -454 l  406 -454 l 
406 0 l  340 0 l  115 -346 l  115 0 l  p ef
790 0 m  512 0 l  512 -454 l  574 -454 l  574 -53 l  790 -53 l  790 0 l 
p ef
843 -154 m  905 -154 l  907 -130 913 -111 922 -95 ct 932 -80 946 -68 966 -58 ct 
985 -49 1007 -44 1032 -44 ct 1053 -44 1072 -48 1089 -55 ct 1106 -62 1118 -72 1126 -84 ct 
1134 -97 1138 -110 1138 -124 ct 1138 -138 1135 -150 1128 -160 ct 1122 -171 1109 -179 1091 -187 ct 
1079 -191 1053 -199 1013 -209 ct 973 -219 944 -229 927 -238 ct 905 -249 888 -263 877 -280 ct 
866 -297 861 -316 861 -337 ct 861 -360 867 -382 880 -402 ct 893 -422 912 -437 937 -447 ct 
962 -458 990 -463 1020 -463 ct 1054 -463 1084 -458 1110 -447 ct 1135 -436 1155 -420 1169 -398 ct 
1183 -377 1190 -353 1191 -326 ct 1130 -326 l  1127 -354 1116 -375 1099 -389 ct 
1082 -403 1057 -410 1023 -410 ct 988 -410 962 -403 946 -390 ct 930 -377 922 -360 922 -341 ct 
922 -325 928 -311 939 -301 ct 950 -290 980 -279 1027 -268 ct 1074 -257 1106 -247 1124 -239 ct 
1150 -227 1169 -211 1181 -192 ct 1194 -174 1200 -152 1200 -128 ct 1200 -103 1193 -81 1180 -59 ct 
1166 -38 1146 -21 1121 -9 ct 1095 3 1066 9 1034 9 ct 994 9 960 2 932 -10 ct 905 -23 883 -42 868 -68 ct 
852 -93 844 -122 843 -154 ct p ef
1350 0 m  1288 0 l  1288 -454 l  1485 -454 l  1524 -454 1554 -450 1574 -442 ct 
1594 -434 1610 -420 1623 -399 ct 1635 -378 1641 -356 1641 -331 ct 1641 -298 1631 -271 1611 -249 ct 
1591 -227 1560 -213 1518 -207 ct 1533 -200 1545 -192 1552 -185 ct 1569 -168 1585 -148 1600 -124 ct 
1676 0 l  1604 0 l  1546 -95 l  1529 -122 1515 -143 1504 -158 ct 1494 -172 1484 -182 1475 -188 ct 
1466 -194 1458 -198 1449 -201 ct 1442 -202 1432 -203 1417 -203 ct 1350 -203 l 
1350 0 l  p
1350 -401 m  1350 -256 l  1474 -256 l  1500 -256 1521 -259 1535 -264 ct 1549 -270 1560 -278 1568 -290 ct 
1575 -303 1579 -316 1579 -330 ct 1579 -351 1572 -368 1557 -381 ct 1542 -395 1519 -401 1488 -401 ct 
1350 -401 l  p ef
pom

1.000 1.000 1.000 c 1201 7838 m  3613 7838 l  3613 8855 l  1201 8855 l 
1201 7838 l  1201 7838 l  p ef
0.003 0.003 0.003 c 1200 7838 m  3613 7838 l  3613 8855 l  1200 8855 l  1200 7838 l 
1200 7838 l  pc
pum
1401 8567 t
101 0 m  44 0 l  44 -331 l  93 -331 l  93 -283 l  105 -304 117 -318 128 -325 ct 
139 -332 151 -335 164 -335 ct 182 -335 201 -330 220 -321 ct 201 -269 l  188 -278 175 -282 162 -282 ct 
150 -282 140 -279 130 -271 ct 121 -264 114 -253 110 -240 ct 104 -220 101 -198 101 -174 ct 
101 0 l  p ef
237 -165 m  237 -226 254 -270 287 -299 ct 314 -323 348 -335 388 -335 ct 432 -335 467 -321 495 -291 ct 
523 -262 537 -222 537 -170 ct 537 -128 531 -95 519 -71 ct 506 -47 488 -29 465 -15 ct 
441 -2 415 4 388 4 ct 343 4 307 -10 279 -39 ct 251 -69 237 -111 237 -165 ct p
295 -166 m  295 -126 304 -97 321 -78 ct 339 -58 361 -49 388 -49 ct 414 -49 436 -58 454 -78 ct 
471 -97 480 -127 480 -167 ct 480 -205 471 -234 453 -253 ct 436 -272 414 -282 388 -282 ct 
361 -282 339 -273 321 -253 ct 304 -234 295 -205 295 -166 ct p ef
874 0 m  816 0 l  816 -56 l  792 -16 759 4 717 4 ct 698 4 681 1 665 -7 ct 648 -14 637 -23 629 -35 ct 
621 -46 616 -60 612 -76 ct 610 -87 609 -104 609 -128 ct 609 -331 l  666 -331 l 
666 -152 l  666 -124 668 -104 670 -95 ct 673 -80 680 -69 691 -61 ct 702 -53 716 -49 732 -49 ct 
748 -49 763 -53 777 -61 ct 792 -70 802 -81 808 -95 ct 813 -110 816 -131 816 -158 ct 
816 -331 l  874 -331 l  874 0 l  p ef
1081 -50 m  1090 -1 l  1074 3 1060 4 1048 4 ct 1028 4 1012 1 1001 -5 ct 990 -11 982 -19 978 -29 ct 
973 -40 971 -61 971 -94 ct 971 -278 l  931 -278 l  931 -331 l  971 -331 l 
971 -412 l  1028 -446 l  1028 -331 l  1081 -331 l  1081 -278 l  1028 -278 l 
1028 -92 l  1028 -77 1029 -67 1031 -63 ct 1033 -58 1036 -55 1040 -52 ct 1044 -50 1050 -49 1058 -49 ct 
1064 -49 1072 -49 1081 -50 ct p ef
1362 -106 m  1418 -97 l  1409 -65 1392 -40 1368 -22 ct 1343 -4 1312 4 1273 4 ct 
1225 4 1187 -10 1158 -39 ct 1130 -69 1116 -110 1116 -163 ct 1116 -217 1130 -260 1159 -290 ct 
1188 -320 1225 -335 1270 -335 ct 1314 -335 1350 -320 1378 -290 ct 1406 -261 1420 -219 1420 -165 ct 
1420 -161 1420 -156 1420 -150 ct 1173 -150 l  1175 -117 1186 -92 1205 -75 ct 
1223 -57 1246 -49 1274 -49 ct 1295 -49 1313 -53 1327 -62 ct 1342 -71 1354 -86 1362 -106 ct 
p
1173 -203 m  1363 -203 l  1360 -226 1353 -244 1341 -255 ct 1323 -273 1299 -282 1270 -282 ct 
1244 -282 1221 -275 1203 -261 ct 1185 -246 1175 -227 1173 -203 ct p ef
1548 0 m  1491 0 l  1491 -331 l  1540 -331 l  1540 -283 l  1552 -304 1564 -318 1575 -325 ct 
1586 -332 1598 -335 1611 -335 ct 1629 -335 1648 -330 1667 -321 ct 1648 -269 l 
1635 -278 1622 -282 1609 -282 ct 1597 -282 1587 -279 1577 -271 ct 1568 -264 1561 -253 1557 -240 ct 
1551 -220 1548 -198 1548 -174 ct 1548 0 l  p ef
1897 -459 m  1897 0 l  1840 0 l  1840 -357 l  1827 -345 1809 -332 1788 -319 ct 
1766 -306 1747 -296 1730 -290 ct 1730 -344 l  1761 -359 1788 -377 1811 -398 ct 
1834 -418 1851 -439 1860 -459 ct 1897 -459 l  p ef
pom

1.000 1.000 1.000 c 4019 7839 m  6433 7839 l  6433 8856 l  4019 8856 l 
4019 7839 l  4019 7839 l  p ef
0.003 0.003 0.003 c 4019 7839 m  6432 7839 l  6432 8856 l  4019 8856 l  4019 7839 l 
4019 7839 l  pc
pum
4220 8568 t
101 0 m  44 0 l  44 -331 l  93 -331 l  93 -283 l  105 -304 117 -318 128 -325 ct 
139 -332 151 -335 164 -335 ct 182 -335 201 -330 220 -321 ct 201 -269 l  188 -278 175 -282 162 -282 ct 
150 -282 140 -279 130 -271 ct 121 -264 114 -253 110 -240 ct 104 -220 101 -198 101 -174 ct 
101 0 l  p ef
237 -165 m  237 -226 254 -270 287 -299 ct 314 -323 348 -335 388 -335 ct 432 -335 467 -321 495 -291 ct 
523 -262 537 -222 537 -170 ct 537 -128 531 -95 519 -71 ct 506 -47 488 -29 465 -15 ct 
441 -2 415 4 388 4 ct 343 4 307 -10 279 -39 ct 251 -69 237 -111 237 -165 ct p
295 -166 m  295 -126 304 -97 321 -78 ct 339 -58 361 -49 388 -49 ct 414 -49 436 -58 454 -78 ct 
471 -97 480 -127 480 -167 ct 480 -205 471 -234 453 -253 ct 436 -272 414 -282 388 -282 ct 
361 -282 339 -273 321 -253 ct 304 -234 295 -205 295 -166 ct p ef
874 0 m  816 0 l  816 -56 l  792 -16 759 4 717 4 ct 698 4 681 1 665 -7 ct 648 -14 637 -23 629 -35 ct 
621 -46 616 -60 612 -76 ct 610 -87 609 -104 609 -128 ct 609 -331 l  666 -331 l 
666 -152 l  666 -124 668 -104 670 -95 ct 673 -80 680 -69 691 -61 ct 702 -53 716 -49 732 -49 ct 
748 -49 763 -53 777 -61 ct 792 -70 802 -81 808 -95 ct 813 -110 816 -131 816 -158 ct 
816 -331 l  874 -331 l  874 0 l  p ef
1081 -50 m  1090 -1 l  1074 3 1060 4 1048 4 ct 1028 4 1012 1 1001 -5 ct 990 -11 982 -19 978 -29 ct 
973 -40 971 -61 971 -94 ct 971 -278 l  931 -278 l  931 -331 l  971 -331 l 
971 -412 l  1028 -446 l  1028 -331 l  1081 -331 l  1081 -278 l  1028 -278 l 
1028 -92 l  1028 -77 1029 -67 1031 -63 ct 1033 -58 1036 -55 1040 -52 ct 1044 -50 1050 -49 1058 -49 ct 
1064 -49 1072 -49 1081 -50 ct p ef
1362 -106 m  1418 -97 l  1409 -65 1392 -40 1368 -22 ct 1343 -4 1312 4 1273 4 ct 
1225 4 1187 -10 1158 -39 ct 1130 -69 1116 -110 1116 -163 ct 1116 -217 1130 -260 1159 -290 ct 
1188 -320 1225 -335 1270 -335 ct 1314 -335 1350 -320 1378 -290 ct 1406 -261 1420 -219 1420 -165 ct 
1420 -161 1420 -156 1420 -150 ct 1173 -150 l  1175 -117 1186 -92 1205 -75 ct 
1223 -57 1246 -49 1274 -49 ct 1295 -49 1313 -53 1327 -62 ct 1342 -71 1354 -86 1362 -106 ct 
p
1173 -203 m  1363 -203 l  1360 -226 1353 -244 1341 -255 ct 1323 -273 1299 -282 1270 -282 ct 
1244 -282 1221 -275 1203 -261 ct 1185 -246 1175 -227 1173 -203 ct p ef
1548 0 m  1491 0 l  1491 -331 l  1540 -331 l  1540 -283 l  1552 -304 1564 -318 1575 -325 ct 
1586 -332 1598 -335 1611 -335 ct 1629 -335 1648 -330 1667 -321 ct 1648 -269 l 
1635 -278 1622 -282 1609 -282 ct 1597 -282 1587 -279 1577 -271 ct 1568 -264 1561 -253 1557 -240 ct 
1551 -220 1548 -198 1548 -174 ct 1548 0 l  p ef
1753 -57 m  1977 -57 l  1977 0 l  1677 0 l  1676 -14 1678 -27 1683 -40 ct 
1690 -62 1702 -82 1718 -102 ct 1735 -123 1758 -145 1790 -171 ct 1838 -211 1871 -243 1889 -266 ct 
1906 -288 1915 -310 1915 -331 ct 1915 -352 1907 -370 1891 -384 ct 1876 -398 1856 -406 1830 -406 ct 
1804 -406 1783 -398 1767 -383 ct 1751 -369 1743 -348 1743 -322 ct 1685 -331 l 
1689 -372 1704 -404 1729 -426 ct 1755 -448 1789 -459 1832 -459 ct 1875 -459 1909 -446 1934 -422 ct 
1959 -398 1972 -368 1972 -332 ct 1972 -313 1969 -295 1962 -278 ct 1954 -260 1943 -241 1926 -222 ct 
1910 -202 1882 -176 1843 -143 ct 1810 -115 1788 -97 1778 -87 ct 1768 -77 1760 -67 1753 -57 ct 
p ef
pom

1.000 1.000 1.000 c 6813 7839 m  9227 7839 l  9227 8856 l  6813 8856 l 
6813 7839 l  6813 7839 l  p ef
0.003 0.003 0.003 c 6812 7839 m  9226 7839 l  9226 8856 l  6812 8856 l  6812 7839 l 
6812 7839 l  pc
pum
7014 8568 t
101 0 m  44 0 l  44 -331 l  93 -331 l  93 -283 l  105 -304 117 -318 128 -325 ct 
139 -332 151 -335 164 -335 ct 182 -335 201 -330 220 -321 ct 201 -269 l  188 -278 175 -282 162 -282 ct 
150 -282 140 -279 130 -271 ct 121 -264 114 -253 110 -240 ct 104 -220 101 -198 101 -174 ct 
101 0 l  p ef
237 -165 m  237 -226 254 -270 287 -299 ct 314 -323 348 -335 388 -335 ct 432 -335 467 -321 495 -291 ct 
523 -262 537 -222 537 -170 ct 537 -128 531 -95 519 -71 ct 506 -47 488 -29 465 -15 ct 
441 -2 415 4 388 4 ct 343 4 307 -10 279 -39 ct 251 -69 237 -111 237 -165 ct p
295 -166 m  295 -126 304 -97 321 -78 ct 339 -58 361 -49 388 -49 ct 414 -49 436 -58 454 -78 ct 
471 -97 480 -127 480 -167 ct 480 -205 471 -234 453 -253 ct 436 -272 414 -282 388 -282 ct 
361 -282 339 -273 321 -253 ct 304 -234 295 -205 295 -166 ct p ef
874 0 m  816 0 l  816 -56 l  792 -16 759 4 717 4 ct 698 4 681 1 665 -7 ct 648 -14 637 -23 629 -35 ct 
621 -46 616 -60 612 -76 ct 610 -87 609 -104 609 -128 ct 609 -331 l  666 -331 l 
666 -152 l  666 -124 668 -104 670 -95 ct 673 -80 680 -69 691 -61 ct 702 -53 716 -49 732 -49 ct 
748 -49 763 -53 777 -61 ct 792 -70 802 -81 808 -95 ct 813 -110 816 -131 816 -158 ct 
816 -331 l  874 -331 l  874 0 l  p ef
1081 -50 m  1090 -1 l  1074 3 1060 4 1048 4 ct 1028 4 1012 1 1001 -5 ct 990 -11 982 -19 978 -29 ct 
973 -40 971 -61 971 -94 ct 971 -278 l  931 -278 l  931 -331 l  971 -331 l 
971 -412 l  1028 -446 l  1028 -331 l  1081 -331 l  1081 -278 l  1028 -278 l 
1028 -92 l  1028 -77 1029 -67 1031 -63 ct 1033 -58 1036 -55 1040 -52 ct 1044 -50 1050 -49 1058 -49 ct 
1064 -49 1072 -49 1081 -50 ct p ef
1362 -106 m  1418 -97 l  1409 -65 1392 -40 1368 -22 ct 1343 -4 1312 4 1273 4 ct 
1225 4 1187 -10 1158 -39 ct 1130 -69 1116 -110 1116 -163 ct 1116 -217 1130 -260 1159 -290 ct 
1188 -320 1225 -335 1270 -335 ct 1314 -335 1350 -320 1378 -290 ct 1406 -261 1420 -219 1420 -165 ct 
1420 -161 1420 -156 1420 -150 ct 1173 -150 l  1175 -117 1186 -92 1205 -75 ct 
1223 -57 1246 -49 1274 -49 ct 1295 -49 1313 -53 1327 -62 ct 1342 -71 1354 -86 1362 -106 ct 
p
1173 -203 m  1363 -203 l  1360 -226 1353 -244 1341 -255 ct 1323 -273 1299 -282 1270 -282 ct 
1244 -282 1221 -275 1203 -261 ct 1185 -246 1175 -227 1173 -203 ct p ef
1548 0 m  1491 0 l  1491 -331 l  1540 -331 l  1540 -283 l  1552 -304 1564 -318 1575 -325 ct 
1586 -332 1598 -335 1611 -335 ct 1629 -335 1648 -330 1667 -321 ct 1648 -269 l 
1635 -278 1622 -282 1609 -282 ct 1597 -282 1587 -279 1577 -271 ct 1568 -264 1561 -253 1557 -240 ct 
1551 -220 1548 -198 1548 -174 ct 1548 0 l  p ef
1690 -119 m  1747 -128 l  1753 -98 1764 -77 1778 -64 ct 1792 -51 1810 -44 1833 -44 ct 
1860 -44 1882 -53 1898 -71 ct 1915 -88 1924 -110 1924 -136 ct 1924 -161 1915 -182 1899 -198 ct 
1883 -214 1863 -222 1838 -222 ct 1827 -222 1815 -220 1800 -216 ct 1806 -269 l 
1809 -269 1812 -268 1814 -268 ct 1837 -268 1857 -274 1875 -286 ct 1893 -297 1902 -315 1902 -339 ct 
1902 -358 1895 -374 1882 -387 ct 1868 -399 1851 -406 1830 -406 ct 1809 -406 1792 -399 1778 -387 ct 
1764 -374 1756 -356 1752 -331 ct 1694 -340 l  1701 -377 1716 -407 1740 -427 ct 
1764 -448 1793 -459 1828 -459 ct 1853 -459 1875 -453 1896 -443 ct 1916 -432 1932 -418 1943 -399 ct 
1953 -381 1959 -362 1959 -341 ct 1959 -322 1954 -304 1943 -288 ct 1933 -272 1917 -259 1896 -250 ct 
1923 -243 1944 -230 1959 -210 ct 1974 -190 1981 -166 1981 -136 ct 1981 -95 1967 -61 1938 -33 ct 
1910 -5 1874 9 1831 9 ct 1792 9 1760 -3 1734 -27 ct 1708 -51 1693 -81 1690 -119 ct 
p ef
pom

1.000 1.000 1.000 c 9606 7838 m  12020 7838 l  12020 8855 l  9606 8855 l 
9606 7838 l  9606 7838 l  p ef
0.003 0.003 0.003 c 9606 7838 m  12020 7838 l  12020 8855 l  9606 8855 l  9606 7838 l 
9606 7838 l  pc
pum
9807 8567 t
101 0 m  44 0 l  44 -331 l  93 -331 l  93 -283 l  105 -304 117 -318 128 -325 ct 
139 -332 151 -335 164 -335 ct 182 -335 201 -330 220 -321 ct 201 -269 l  188 -278 175 -282 162 -282 ct 
150 -282 140 -279 130 -271 ct 121 -264 114 -253 110 -240 ct 104 -220 101 -198 101 -174 ct 
101 0 l  p ef
237 -165 m  237 -226 254 -270 287 -299 ct 314 -323 348 -335 388 -335 ct 432 -335 467 -321 495 -291 ct 
523 -262 537 -222 537 -170 ct 537 -128 531 -95 519 -71 ct 506 -47 488 -29 465 -15 ct 
441 -2 415 4 388 4 ct 343 4 307 -10 279 -39 ct 251 -69 237 -111 237 -165 ct p
295 -166 m  295 -126 304 -97 321 -78 ct 339 -58 361 -49 388 -49 ct 414 -49 436 -58 454 -78 ct 
471 -97 480 -127 480 -167 ct 480 -205 471 -234 453 -253 ct 436 -272 414 -282 388 -282 ct 
361 -282 339 -273 321 -253 ct 304 -234 295 -205 295 -166 ct p ef
874 0 m  816 0 l  816 -56 l  792 -16 759 4 717 4 ct 698 4 681 1 665 -7 ct 648 -14 637 -23 629 -35 ct 
621 -46 616 -60 612 -76 ct 610 -87 609 -104 609 -128 ct 609 -331 l  666 -331 l 
666 -152 l  666 -124 668 -104 670 -95 ct 673 -80 680 -69 691 -61 ct 702 -53 716 -49 732 -49 ct 
748 -49 763 -53 777 -61 ct 792 -70 802 -81 808 -95 ct 813 -110 816 -131 816 -158 ct 
816 -331 l  874 -331 l  874 0 l  p ef
1081 -50 m  1090 -1 l  1074 3 1060 4 1048 4 ct 1028 4 1012 1 1001 -5 ct 990 -11 982 -19 978 -29 ct 
973 -40 971 -61 971 -94 ct 971 -278 l  931 -278 l  931 -331 l  971 -331 l 
971 -412 l  1028 -446 l  1028 -331 l  1081 -331 l  1081 -278 l  1028 -278 l 
1028 -92 l  1028 -77 1029 -67 1031 -63 ct 1033 -58 1036 -55 1040 -52 ct 1044 -50 1050 -49 1058 -49 ct 
1064 -49 1072 -49 1081 -50 ct p ef
1362 -106 m  1418 -97 l  1409 -65 1392 -40 1368 -22 ct 1343 -4 1312 4 1273 4 ct 
1225 4 1187 -10 1158 -39 ct 1130 -69 1116 -110 1116 -163 ct 1116 -217 1130 -260 1159 -290 ct 
1188 -320 1225 -335 1270 -335 ct 1314 -335 1350 -320 1378 -290 ct 1406 -261 1420 -219 1420 -165 ct 
1420 -161 1420 -156 1420 -150 ct 1173 -150 l  1175 -117 1186 -92 1205 -75 ct 
1223 -57 1246 -49 1274 -49 ct 1295 -49 1313 -53 1327 -62 ct 1342 -71 1354 -86 1362 -106 ct 
p
1173 -203 m  1363 -203 l  1360 -226 1353 -244 1341 -255 ct 1323 -273 1299 -282 1270 -282 ct 
1244 -282 1221 -275 1203 -261 ct 1185 -246 1175 -227 1173 -203 ct p ef
1548 0 m  1491 0 l  1491 -331 l  1540 -331 l  1540 -283 l  1552 -304 1564 -318 1575 -325 ct 
1586 -332 1598 -335 1611 -335 ct 1629 -335 1648 -330 1667 -321 ct 1648 -269 l 
1635 -278 1622 -282 1609 -282 ct 1597 -282 1587 -279 1577 -271 ct 1568 -264 1561 -253 1557 -240 ct 
1551 -220 1548 -198 1548 -174 ct 1548 0 l  p ef
1924 0 m  1866 0 l  1866 -110 l  1668 -110 l  1668 -168 l  1879 -450 l 
1924 -450 l  1924 -168 l  1981 -168 l  1981 -110 l  1924 -110 l  1924 0 l 
p
1738 -168 m  1866 -168 l  1866 -338 l  1738 -168 l  p ef
pom

1.000 1.000 1.000 c 12400 7839 m  14814 7839 l  14814 8856 l  12400 8856 l 
12400 7839 l  12400 7839 l  p ef
0.003 0.003 0.003 c 12400 7839 m  14813 7839 l  14813 8856 l  12400 8856 l 
12400 7839 l  12400 7839 l  pc
pum
12601 8568 t
101 0 m  44 0 l  44 -331 l  93 -331 l  93 -283 l  105 -304 117 -318 128 -325 ct 
139 -332 151 -335 164 -335 ct 182 -335 201 -330 220 -321 ct 201 -269 l  188 -278 175 -282 162 -282 ct 
150 -282 140 -279 130 -271 ct 121 -264 114 -253 110 -240 ct 104 -220 101 -198 101 -174 ct 
101 0 l  p ef
237 -165 m  237 -226 254 -270 287 -299 ct 314 -323 348 -335 388 -335 ct 432 -335 467 -321 495 -291 ct 
523 -262 537 -222 537 -170 ct 537 -128 531 -95 519 -71 ct 506 -47 488 -29 465 -15 ct 
441 -2 415 4 388 4 ct 343 4 307 -10 279 -39 ct 251 -69 237 -111 237 -165 ct p
295 -166 m  295 -126 304 -97 321 -78 ct 339 -58 361 -49 388 -49 ct 414 -49 436 -58 454 -78 ct 
471 -97 480 -127 480 -167 ct 480 -205 471 -234 453 -253 ct 436 -272 414 -282 388 -282 ct 
361 -282 339 -273 321 -253 ct 304 -234 295 -205 295 -166 ct p ef
874 0 m  816 0 l  816 -56 l  792 -16 759 4 717 4 ct 698 4 681 1 665 -7 ct 648 -14 637 -23 629 -35 ct 
621 -46 616 -60 612 -76 ct 610 -87 609 -104 609 -128 ct 609 -331 l  666 -331 l 
666 -152 l  666 -124 668 -104 670 -95 ct 673 -80 680 -69 691 -61 ct 702 -53 716 -49 732 -49 ct 
748 -49 763 -53 777 -61 ct 792 -70 802 -81 808 -95 ct 813 -110 816 -131 816 -158 ct 
816 -331 l  874 -331 l  874 0 l  p ef
1081 -50 m  1090 -1 l  1074 3 1060 4 1048 4 ct 1028 4 1012 1 1001 -5 ct 990 -11 982 -19 978 -29 ct 
973 -40 971 -61 971 -94 ct 971 -278 l  931 -278 l  931 -331 l  971 -331 l 
971 -412 l  1028 -446 l  1028 -331 l  1081 -331 l  1081 -278 l  1028 -278 l 
1028 -92 l  1028 -77 1029 -67 1031 -63 ct 1033 -58 1036 -55 1040 -52 ct 1044 -50 1050 -49 1058 -49 ct 
1064 -49 1072 -49 1081 -50 ct p ef
1362 -106 m  1418 -97 l  1409 -65 1392 -40 1368 -22 ct 1343 -4 1312 4 1273 4 ct 
1225 4 1187 -10 1158 -39 ct 1130 -69 1116 -110 1116 -163 ct 1116 -217 1130 -260 1159 -290 ct 
1188 -320 1225 -335 1270 -335 ct 1314 -335 1350 -320 1378 -290 ct 1406 -261 1420 -219 1420 -165 ct 
1420 -161 1420 -156 1420 -150 ct 1173 -150 l  1175 -117 1186 -92 1205 -75 ct 
1223 -57 1246 -49 1274 -49 ct 1295 -49 1313 -53 1327 -62 ct 1342 -71 1354 -86 1362 -106 ct 
p
1173 -203 m  1363 -203 l  1360 -226 1353 -244 1341 -255 ct 1323 -273 1299 -282 1270 -282 ct 
1244 -282 1221 -275 1203 -261 ct 1185 -246 1175 -227 1173 -203 ct p ef
1548 0 m  1491 0 l  1491 -331 l  1540 -331 l  1540 -283 l  1552 -304 1564 -318 1575 -325 ct 
1586 -332 1598 -335 1611 -335 ct 1629 -335 1648 -330 1667 -321 ct 1648 -269 l 
1635 -278 1622 -282 1609 -282 ct 1597 -282 1587 -279 1577 -271 ct 1568 -264 1561 -253 1557 -240 ct 
1551 -220 1548 -198 1548 -174 ct 1548 0 l  p ef
1690 -119 m  1747 -123 l  1751 -97 1761 -77 1775 -64 ct 1790 -51 1808 -44 1831 -44 ct 
1859 -44 1882 -54 1898 -74 ct 1915 -93 1924 -119 1924 -152 ct 1924 -182 1916 -207 1900 -225 ct 
1885 -242 1862 -251 1833 -251 ct 1815 -251 1799 -247 1787 -239 ct 1774 -231 1764 -220 1756 -207 ct 
1699 -216 l  1747 -450 l  1959 -450 l  1959 -392 l  1794 -392 l  1770 -274 l 
1796 -294 1822 -304 1850 -304 ct 1887 -304 1918 -290 1943 -263 ct 1968 -235 1981 -199 1981 -155 ct 
1981 -113 1969 -77 1946 -47 ct 1918 -10 1880 9 1831 9 ct 1791 9 1758 -3 1733 -26 ct 
1708 -50 1693 -80 1690 -119 ct p ef
pom

1.000 1.000 1.000 c 15194 7840 m  17607 7840 l  17607 8857 l  15194 8857 l 
15194 7840 l  15194 7840 l  p ef
0.003 0.003 0.003 c 15193 7840 m  17607 7840 l  17607 8857 l  15193 8857 l 
15193 7840 l  15193 7840 l  pc
pum
15395 8569 t
101 0 m  44 0 l  44 -331 l  93 -331 l  93 -283 l  105 -304 117 -318 128 -325 ct 
139 -332 151 -335 164 -335 ct 182 -335 201 -330 220 -321 ct 201 -269 l  188 -278 175 -282 162 -282 ct 
150 -282 140 -279 130 -271 ct 121 -264 114 -253 110 -240 ct 104 -220 101 -198 101 -174 ct 
101 0 l  p ef
237 -165 m  237 -226 254 -270 287 -299 ct 314 -323 348 -335 388 -335 ct 432 -335 467 -321 495 -291 ct 
523 -262 537 -222 537 -170 ct 537 -128 531 -95 519 -71 ct 506 -47 488 -29 465 -15 ct 
441 -2 415 4 388 4 ct 343 4 307 -10 279 -39 ct 251 -69 237 -111 237 -165 ct p
295 -166 m  295 -126 304 -97 321 -78 ct 339 -58 361 -49 388 -49 ct 414 -49 436 -58 454 -78 ct 
471 -97 480 -127 480 -167 ct 480 -205 471 -234 453 -253 ct 436 -272 414 -282 388 -282 ct 
361 -282 339 -273 321 -253 ct 304 -234 295 -205 295 -166 ct p ef
874 0 m  816 0 l  816 -56 l  792 -16 759 4 717 4 ct 698 4 681 1 665 -7 ct 648 -14 637 -23 629 -35 ct 
621 -46 616 -60 612 -76 ct 610 -87 609 -104 609 -128 ct 609 -331 l  666 -331 l 
666 -152 l  666 -124 668 -104 670 -95 ct 673 -80 680 -69 691 -61 ct 702 -53 716 -49 732 -49 ct 
748 -49 763 -53 777 -61 ct 792 -70 802 -81 808 -95 ct 813 -110 816 -131 816 -158 ct 
816 -331 l  874 -331 l  874 0 l  p ef
1081 -50 m  1090 -1 l  1074 3 1060 4 1048 4 ct 1028 4 1012 1 1001 -5 ct 990 -11 982 -19 978 -29 ct 
973 -40 971 -61 971 -94 ct 971 -278 l  931 -278 l  931 -331 l  971 -331 l 
971 -412 l  1028 -446 l  1028 -331 l  1081 -331 l  1081 -278 l  1028 -278 l 
1028 -92 l  1028 -77 1029 -67 1031 -63 ct 1033 -58 1036 -55 1040 -52 ct 1044 -50 1050 -49 1058 -49 ct 
1064 -49 1072 -49 1081 -50 ct p ef
1362 -106 m  1418 -97 l  1409 -65 1392 -40 1368 -22 ct 1343 -4 1312 4 1273 4 ct 
1225 4 1187 -10 1158 -39 ct 1130 -69 1116 -110 1116 -163 ct 1116 -217 1130 -260 1159 -290 ct 
1188 -320 1225 -335 1270 -335 ct 1314 -335 1350 -320 1378 -290 ct 1406 -261 1420 -219 1420 -165 ct 
1420 -161 1420 -156 1420 -150 ct 1173 -150 l  1175 -117 1186 -92 1205 -75 ct 
1223 -57 1246 -49 1274 -49 ct 1295 -49 1313 -53 1327 -62 ct 1342 -71 1354 -86 1362 -106 ct 
p
1173 -203 m  1363 -203 l  1360 -226 1353 -244 1341 -255 ct 1323 -273 1299 -282 1270 -282 ct 
1244 -282 1221 -275 1203 -261 ct 1185 -246 1175 -227 1173 -203 ct p ef
1548 0 m  1491 0 l  1491 -331 l  1540 -331 l  1540 -283 l  1552 -304 1564 -318 1575 -325 ct 
1586 -332 1598 -335 1611 -335 ct 1629 -335 1648 -330 1667 -321 ct 1648 -269 l 
1635 -278 1622 -282 1609 -282 ct 1597 -282 1587 -279 1577 -271 ct 1568 -264 1561 -253 1557 -240 ct 
1551 -220 1548 -198 1548 -174 ct 1548 0 l  p ef
1972 -340 m  1915 -335 l  1910 -357 1903 -372 1894 -382 ct 1879 -398 1860 -406 1838 -406 ct 
1820 -406 1804 -401 1789 -392 ct 1773 -379 1760 -361 1750 -338 ct 1740 -315 1734 -280 1734 -235 ct 
1748 -255 1764 -271 1784 -281 ct 1803 -290 1824 -295 1845 -295 ct 1883 -295 1915 -282 1941 -254 ct 
1968 -227 1981 -191 1981 -147 ct 1981 -119 1975 -92 1962 -67 ct 1950 -43 1933 -24 1911 -11 ct 
1889 2 1864 9 1837 9 ct 1790 9 1751 -8 1721 -43 ct 1692 -77 1677 -134 1677 -213 ct 
1677 -302 1693 -366 1726 -406 ct 1755 -441 1793 -459 1842 -459 ct 1878 -459 1907 -448 1931 -427 ct 
1954 -406 1967 -377 1972 -340 ct p
1734 -148 m  1734 -130 1738 -113 1747 -96 ct 1756 -79 1767 -66 1782 -57 ct 1797 -48 1814 -44 1832 -44 ct 
1859 -44 1881 -53 1898 -71 ct 1915 -90 1924 -114 1924 -146 ct 1924 -176 1915 -199 1898 -217 ct 
1881 -234 1858 -243 1830 -243 ct 1803 -243 1781 -234 1762 -217 ct 1743 -199 1734 -177 1734 -148 ct 
p ef
pom

1.000 1.000 1.000 c 17987 7840 m  20401 7840 l  20401 8857 l  17987 8857 l 
17987 7840 l  17987 7840 l  p ef
0.003 0.003 0.003 c 17987 7840 m  20400 7840 l  20400 8857 l  17987 8857 l 
17987 7840 l  17987 7840 l  pc
pum
18188 8569 t
101 0 m  44 0 l  44 -331 l  93 -331 l  93 -283 l  105 -304 117 -318 128 -325 ct 
139 -332 151 -335 164 -335 ct 182 -335 201 -330 220 -321 ct 201 -269 l  188 -278 175 -282 162 -282 ct 
150 -282 140 -279 130 -271 ct 121 -264 114 -253 110 -240 ct 104 -220 101 -198 101 -174 ct 
101 0 l  p ef
237 -165 m  237 -226 254 -270 287 -299 ct 314 -323 348 -335 388 -335 ct 432 -335 467 -321 495 -291 ct 
523 -262 537 -222 537 -170 ct 537 -128 531 -95 519 -71 ct 506 -47 488 -29 465 -15 ct 
441 -2 415 4 388 4 ct 343 4 307 -10 279 -39 ct 251 -69 237 -111 237 -165 ct p
295 -166 m  295 -126 304 -97 321 -78 ct 339 -58 361 -49 388 -49 ct 414 -49 436 -58 454 -78 ct 
471 -97 480 -127 480 -167 ct 480 -205 471 -234 453 -253 ct 436 -272 414 -282 388 -282 ct 
361 -282 339 -273 321 -253 ct 304 -234 295 -205 295 -166 ct p ef
874 0 m  816 0 l  816 -56 l  792 -16 759 4 717 4 ct 698 4 681 1 665 -7 ct 648 -14 637 -23 629 -35 ct 
621 -46 616 -60 612 -76 ct 610 -87 609 -104 609 -128 ct 609 -331 l  666 -331 l 
666 -152 l  666 -124 668 -104 670 -95 ct 673 -80 680 -69 691 -61 ct 702 -53 716 -49 732 -49 ct 
748 -49 763 -53 777 -61 ct 792 -70 802 -81 808 -95 ct 813 -110 816 -131 816 -158 ct 
816 -331 l  874 -331 l  874 0 l  p ef
1081 -50 m  1090 -1 l  1074 3 1060 4 1048 4 ct 1028 4 1012 1 1001 -5 ct 990 -11 982 -19 978 -29 ct 
973 -40 971 -61 971 -94 ct 971 -278 l  931 -278 l  931 -331 l  971 -331 l 
971 -412 l  1028 -446 l  1028 -331 l  1081 -331 l  1081 -278 l  1028 -278 l 
1028 -92 l  1028 -77 1029 -67 1031 -63 ct 1033 -58 1036 -55 1040 -52 ct 1044 -50 1050 -49 1058 -49 ct 
1064 -49 1072 -49 1081 -50 ct p ef
1362 -106 m  1418 -97 l  1409 -65 1392 -40 1368 -22 ct 1343 -4 1312 4 1273 4 ct 
1225 4 1187 -10 1158 -39 ct 1130 -69 1116 -110 1116 -163 ct 1116 -217 1130 -260 1159 -290 ct 
1188 -320 1225 -335 1270 -335 ct 1314 -335 1350 -320 1378 -290 ct 1406 -261 1420 -219 1420 -165 ct 
1420 -161 1420 -156 1420 -150 ct 1173 -150 l  1175 -117 1186 -92 1205 -75 ct 
1223 -57 1246 -49 1274 -49 ct 1295 -49 1313 -53 1327 -62 ct 1342 -71 1354 -86 1362 -106 ct 
p
1173 -203 m  1363 -203 l  1360 -226 1353 -244 1341 -255 ct 1323 -273 1299 -282 1270 -282 ct 
1244 -282 1221 -275 1203 -261 ct 1185 -246 1175 -227 1173 -203 ct p ef
1548 0 m  1491 0 l  1491 -331 l  1540 -331 l  1540 -283 l  1552 -304 1564 -318 1575 -325 ct 
1586 -332 1598 -335 1611 -335 ct 1629 -335 1648 -330 1667 -321 ct 1648 -269 l 
1635 -278 1622 -282 1609 -282 ct 1597 -282 1587 -279 1577 -271 ct 1568 -264 1561 -253 1557 -240 ct 
1551 -220 1548 -198 1548 -174 ct 1548 0 l  p ef
1910 -392 m  1685 -392 l  1685 -450 l  1981 -450 l  1981 -403 l  1953 -372 1925 -331 1898 -281 ct 
1870 -230 1849 -178 1834 -124 ct 1823 -86 1816 -45 1813 0 ct 1756 0 l  1757 -36 1763 -78 1776 -129 ct 
1790 -179 1808 -228 1833 -274 ct 1857 -321 1883 -360 1910 -392 ct p ef
pom

1.000 1.000 1.000 c 1901 5740 m  5660 5740 l  5660 6757 l  1901 6757 l 
1901 5740 l  1901 5740 l  p ef
0.003 0.003 0.003 c 1900 5739 m  5660 5739 l  5660 6756 l  1900 6756 l  1900 5739 l 
1900 5739 l  pc
pum
2422 6469 t
26 -165 m  26 -226 43 -270 76 -299 ct 103 -323 137 -335 177 -335 ct 221 -335 256 -321 284 -291 ct 
312 -262 326 -222 326 -170 ct 326 -128 320 -95 308 -71 ct 295 -47 277 -29 254 -15 ct 
230 -2 204 4 177 4 ct 132 4 96 -10 68 -39 ct 40 -69 26 -111 26 -165 ct p
84 -166 m  84 -126 93 -97 110 -78 ct 128 -58 150 -49 177 -49 ct 203 -49 225 -58 243 -78 ct 
260 -97 269 -127 269 -167 ct 269 -205 260 -234 242 -253 ct 225 -272 203 -282 177 -282 ct 
150 -282 128 -273 110 -253 ct 93 -234 84 -205 84 -166 ct p ef
450 128 m  393 128 l  393 -331 l  450 -331 l  450 -276 l  462 -296 475 -311 490 -320 ct 
504 -330 522 -335 543 -335 ct 571 -335 595 -328 616 -314 ct 637 -299 653 -279 663 -253 ct 
674 -227 679 -199 679 -168 ct 679 -135 673 -105 661 -78 ct 649 -51 632 -31 609 -17 ct 
586 -3 562 4 536 4 ct 518 4 501 0 486 -9 ct 472 -18 459 -30 450 -44 ct 450 128 l 
p
450 -163 m  450 -124 458 -95 475 -76 ct 491 -58 511 -49 535 -49 ct 559 -49 579 -58 596 -77 ct 
613 -97 622 -127 622 -167 ct 622 -205 614 -234 597 -253 ct 580 -273 560 -282 537 -282 ct 
514 -282 494 -272 476 -252 ct 459 -231 450 -202 450 -163 ct p ef
974 -106 m  1030 -97 l  1021 -65 1004 -40 980 -22 ct 955 -4 924 4 885 4 ct 837 4 799 -10 770 -39 ct 
742 -69 728 -110 728 -163 ct 728 -217 742 -260 771 -290 ct 800 -320 837 -335 882 -335 ct 
926 -335 962 -320 990 -290 ct 1018 -261 1032 -219 1032 -165 ct 1032 -161 1032 -156 1032 -150 ct 
785 -150 l  787 -117 798 -92 817 -75 ct 835 -57 858 -49 886 -49 ct 907 -49 925 -53 939 -62 ct 
954 -71 966 -86 974 -106 ct p
785 -203 m  975 -203 l  972 -226 965 -244 953 -255 ct 935 -273 911 -282 882 -282 ct 
856 -282 833 -275 815 -261 ct 797 -246 787 -227 785 -203 ct p ef
1160 0 m  1103 0 l  1103 -331 l  1152 -331 l  1152 -283 l  1164 -304 1176 -318 1187 -325 ct 
1198 -332 1210 -335 1223 -335 ct 1241 -335 1260 -330 1279 -321 ct 1260 -269 l 
1247 -278 1234 -282 1221 -282 ct 1209 -282 1199 -279 1189 -271 ct 1180 -264 1173 -253 1169 -240 ct 
1163 -220 1160 -198 1160 -174 ct 1160 0 l  p ef
1522 -40 m  1502 -24 1483 -12 1465 -6 ct 1446 1 1427 4 1406 4 ct 1371 4 1344 -4 1325 -22 ct 
1307 -39 1297 -61 1297 -88 ct 1297 -104 1301 -118 1308 -131 ct 1315 -144 1324 -154 1336 -162 ct 
1347 -170 1360 -176 1374 -180 ct 1385 -183 1401 -186 1422 -188 ct 1465 -194 1497 -200 1518 -207 ct 
1518 -214 1518 -219 1518 -221 ct 1518 -242 1513 -256 1503 -265 ct 1490 -276 1470 -282 1444 -282 ct 
1419 -282 1401 -278 1390 -270 ct 1378 -261 1369 -246 1364 -225 ct 1306 -234 l 
1311 -257 1319 -276 1331 -290 ct 1342 -305 1358 -316 1379 -323 ct 1401 -331 1425 -335 1453 -335 ct 
1481 -335 1504 -332 1521 -325 ct 1539 -318 1552 -310 1560 -300 ct 1568 -289 1574 -276 1577 -261 ct 
1579 -251 1580 -235 1580 -212 ct 1580 -143 l  1580 -94 1581 -62 1583 -46 ct 
1586 -30 1590 -15 1597 0 ct 1540 0 l  1531 -11 1525 -25 1522 -40 ct p
1518 -138 m  1518 -154 l  1498 -148 1469 -142 1430 -137 ct 1408 -134 1393 -131 1383 -128 ct 
1374 -124 1367 -120 1362 -113 ct 1357 -106 1355 -99 1355 -91 ct 1355 -79 1360 -69 1371 -61 ct 
1382 -53 1398 -49 1419 -49 ct 1439 -49 1457 -53 1474 -61 ct 1490 -70 1501 -81 1509 -94 ct 
1515 -104 1518 -119 1518 -138 ct p ef
1787 -50 m  1796 -1 l  1780 3 1766 4 1754 4 ct 1734 4 1718 1 1707 -5 ct 1696 -11 1688 -19 1684 -29 ct 
1679 -40 1677 -61 1677 -94 ct 1677 -278 l  1637 -278 l  1637 -331 l  1677 -331 l 
1677 -412 l  1734 -446 l  1734 -331 l  1787 -331 l  1787 -278 l  1734 -278 l 
1734 -92 l  1734 -77 1735 -67 1737 -63 ct 1739 -58 1742 -55 1746 -52 ct 1750 -50 1756 -49 1764 -49 ct 
1770 -49 1778 -49 1787 -50 ct p ef
1827 -165 m  1827 -226 1844 -270 1877 -299 ct 1904 -323 1938 -335 1978 -335 ct 
2022 -335 2057 -321 2085 -291 ct 2113 -262 2127 -222 2127 -170 ct 2127 -128 2121 -95 2109 -71 ct 
2096 -47 2078 -29 2055 -15 ct 2031 -2 2005 4 1978 4 ct 1933 4 1897 -10 1869 -39 ct 
1841 -69 1827 -111 1827 -165 ct p
1885 -166 m  1885 -126 1894 -97 1911 -78 ct 1929 -58 1951 -49 1978 -49 ct 2004 -49 2026 -58 2044 -78 ct 
2061 -97 2070 -127 2070 -167 ct 2070 -205 2061 -234 2043 -253 ct 2026 -272 2004 -282 1978 -282 ct 
1951 -282 1929 -273 1911 -253 ct 1894 -234 1885 -205 1885 -166 ct p ef
2255 0 m  2198 0 l  2198 -331 l  2247 -331 l  2247 -283 l  2259 -304 2271 -318 2282 -325 ct 
2293 -332 2305 -335 2318 -335 ct 2336 -335 2355 -330 2374 -321 ct 2355 -269 l 
2342 -278 2329 -282 2316 -282 ct 2304 -282 2294 -279 2284 -271 ct 2275 -264 2268 -253 2264 -240 ct 
2258 -220 2255 -198 2255 -174 ct 2255 0 l  p ef
2603 -459 m  2603 0 l  2546 0 l  2546 -357 l  2533 -345 2515 -332 2494 -319 ct 
2472 -306 2453 -296 2436 -290 ct 2436 -344 l  2467 -359 2494 -377 2517 -398 ct 
2540 -418 2557 -439 2566 -459 ct 2603 -459 l  p ef
pom

1.000 1.000 1.000 c 7600 5741 m  11359 5741 l  11359 6758 l  7600 6758 l 
7600 5741 l  7600 5741 l  p ef
0.003 0.003 0.003 c 7599 5740 m  11359 5740 l  11359 6757 l  7599 6757 l  7599 5740 l 
7599 5740 l  pc
pum
8121 6470 t
26 -165 m  26 -226 43 -270 76 -299 ct 103 -323 137 -335 177 -335 ct 221 -335 256 -321 284 -291 ct 
312 -262 326 -222 326 -170 ct 326 -128 320 -95 308 -71 ct 295 -47 277 -29 254 -15 ct 
230 -2 204 4 177 4 ct 132 4 96 -10 68 -39 ct 40 -69 26 -111 26 -165 ct p
84 -166 m  84 -126 93 -97 110 -78 ct 128 -58 150 -49 177 -49 ct 203 -49 225 -58 243 -78 ct 
260 -97 269 -127 269 -167 ct 269 -205 260 -234 242 -253 ct 225 -272 203 -282 177 -282 ct 
150 -282 128 -273 110 -253 ct 93 -234 84 -205 84 -166 ct p ef
450 128 m  393 128 l  393 -331 l  450 -331 l  450 -276 l  462 -296 475 -311 490 -320 ct 
504 -330 522 -335 543 -335 ct 571 -335 595 -328 616 -314 ct 637 -299 653 -279 663 -253 ct 
674 -227 679 -199 679 -168 ct 679 -135 673 -105 661 -78 ct 649 -51 632 -31 609 -17 ct 
586 -3 562 4 536 4 ct 518 4 501 0 486 -9 ct 472 -18 459 -30 450 -44 ct 450 128 l 
p
450 -163 m  450 -124 458 -95 475 -76 ct 491 -58 511 -49 535 -49 ct 559 -49 579 -58 596 -77 ct 
613 -97 622 -127 622 -167 ct 622 -205 614 -234 597 -253 ct 580 -273 560 -282 537 -282 ct 
514 -282 494 -272 476 -252 ct 459 -231 450 -202 450 -163 ct p ef
974 -106 m  1030 -97 l  1021 -65 1004 -40 980 -22 ct 955 -4 924 4 885 4 ct 837 4 799 -10 770 -39 ct 
742 -69 728 -110 728 -163 ct 728 -217 742 -260 771 -290 ct 800 -320 837 -335 882 -335 ct 
926 -335 962 -320 990 -290 ct 1018 -261 1032 -219 1032 -165 ct 1032 -161 1032 -156 1032 -150 ct 
785 -150 l  787 -117 798 -92 817 -75 ct 835 -57 858 -49 886 -49 ct 907 -49 925 -53 939 -62 ct 
954 -71 966 -86 974 -106 ct p
785 -203 m  975 -203 l  972 -226 965 -244 953 -255 ct 935 -273 911 -282 882 -282 ct 
856 -282 833 -275 815 -261 ct 797 -246 787 -227 785 -203 ct p ef
1160 0 m  1103 0 l  1103 -331 l  1152 -331 l  1152 -283 l  1164 -304 1176 -318 1187 -325 ct 
1198 -332 1210 -335 1223 -335 ct 1241 -335 1260 -330 1279 -321 ct 1260 -269 l 
1247 -278 1234 -282 1221 -282 ct 1209 -282 1199 -279 1189 -271 ct 1180 -264 1173 -253 1169 -240 ct 
1163 -220 1160 -198 1160 -174 ct 1160 0 l  p ef
1522 -40 m  1502 -24 1483 -12 1465 -6 ct 1446 1 1427 4 1406 4 ct 1371 4 1344 -4 1325 -22 ct 
1307 -39 1297 -61 1297 -88 ct 1297 -104 1301 -118 1308 -131 ct 1315 -144 1324 -154 1336 -162 ct 
1347 -170 1360 -176 1374 -180 ct 1385 -183 1401 -186 1422 -188 ct 1465 -194 1497 -200 1518 -207 ct 
1518 -214 1518 -219 1518 -221 ct 1518 -242 1513 -256 1503 -265 ct 1490 -276 1470 -282 1444 -282 ct 
1419 -282 1401 -278 1390 -270 ct 1378 -261 1369 -246 1364 -225 ct 1306 -234 l 
1311 -257 1319 -276 1331 -290 ct 1342 -305 1358 -316 1379 -323 ct 1401 -331 1425 -335 1453 -335 ct 
1481 -335 1504 -332 1521 -325 ct 1539 -318 1552 -310 1560 -300 ct 1568 -289 1574 -276 1577 -261 ct 
1579 -251 1580 -235 1580 -212 ct 1580 -143 l  1580 -94 1581 -62 1583 -46 ct 
1586 -30 1590 -15 1597 0 ct 1540 0 l  1531 -11 1525 -25 1522 -40 ct p
1518 -138 m  1518 -154 l  1498 -148 1469 -142 1430 -137 ct 1408 -134 1393 -131 1383 -128 ct 
1374 -124 1367 -120 1362 -113 ct 1357 -106 1355 -99 1355 -91 ct 1355 -79 1360 -69 1371 -61 ct 
1382 -53 1398 -49 1419 -49 ct 1439 -49 1457 -53 1474 -61 ct 1490 -70 1501 -81 1509 -94 ct 
1515 -104 1518 -119 1518 -138 ct p ef
1787 -50 m  1796 -1 l  1780 3 1766 4 1754 4 ct 1734 4 1718 1 1707 -5 ct 1696 -11 1688 -19 1684 -29 ct 
1679 -40 1677 -61 1677 -94 ct 1677 -278 l  1637 -278 l  1637 -331 l  1677 -331 l 
1677 -412 l  1734 -446 l  1734 -331 l  1787 -331 l  1787 -278 l  1734 -278 l 
1734 -92 l  1734 -77 1735 -67 1737 -63 ct 1739 -58 1742 -55 1746 -52 ct 1750 -50 1756 -49 1764 -49 ct 
1770 -49 1778 -49 1787 -50 ct p ef
1827 -165 m  1827 -226 1844 -270 1877 -299 ct 1904 -323 1938 -335 1978 -335 ct 
2022 -335 2057 -321 2085 -291 ct 2113 -262 2127 -222 2127 -170 ct 2127 -128 2121 -95 2109 -71 ct 
2096 -47 2078 -29 2055 -15 ct 2031 -2 2005 4 1978 4 ct 1933 4 1897 -10 1869 -39 ct 
1841 -69 1827 -111 1827 -165 ct p
1885 -166 m  1885 -126 1894 -97 1911 -78 ct 1929 -58 1951 -49 1978 -49 ct 2004 -49 2026 -58 2044 -78 ct 
2061 -97 2070 -127 2070 -167 ct 2070 -205 2061 -234 2043 -253 ct 2026 -272 2004 -282 1978 -282 ct 
1951 -282 1929 -273 1911 -253 ct 1894 -234 1885 -205 1885 -166 ct p ef
2255 0 m  2198 0 l  2198 -331 l  2247 -331 l  2247 -283 l  2259 -304 2271 -318 2282 -325 ct 
2293 -332 2305 -335 2318 -335 ct 2336 -335 2355 -330 2374 -321 ct 2355 -269 l 
2342 -278 2329 -282 2316 -282 ct 2304 -282 2294 -279 2284 -271 ct 2275 -264 2268 -253 2264 -240 ct 
2258 -220 2255 -198 2255 -174 ct 2255 0 l  p ef
2459 -57 m  2683 -57 l  2683 0 l  2383 0 l  2382 -14 2384 -27 2389 -40 ct 
2396 -62 2408 -82 2424 -102 ct 2441 -123 2464 -145 2496 -171 ct 2544 -211 2577 -243 2595 -266 ct 
2612 -288 2621 -310 2621 -331 ct 2621 -352 2613 -370 2597 -384 ct 2582 -398 2562 -406 2536 -406 ct 
2510 -406 2489 -398 2473 -383 ct 2457 -369 2449 -348 2449 -322 ct 2391 -331 l 
2395 -372 2410 -404 2435 -426 ct 2461 -448 2495 -459 2538 -459 ct 2581 -459 2615 -446 2640 -422 ct 
2665 -398 2678 -368 2678 -332 ct 2678 -313 2675 -295 2668 -278 ct 2660 -260 2649 -241 2632 -222 ct 
2616 -202 2588 -176 2549 -143 ct 2516 -115 2494 -97 2484 -87 ct 2474 -77 2466 -67 2459 -57 ct 
p ef
pom

1.000 1.000 1.000 c 14520 5742 m  18279 5742 l  18279 6759 l  14520 6759 l 
14520 5742 l  14520 5742 l  p ef
0.003 0.003 0.003 c 14519 5741 m  18279 5741 l  18279 6758 l  14519 6758 l 
14519 5741 l  14519 5741 l  pc
pum
15041 6471 t
26 -165 m  26 -226 43 -270 76 -299 ct 103 -323 137 -335 177 -335 ct 221 -335 256 -321 284 -291 ct 
312 -262 326 -222 326 -170 ct 326 -128 320 -95 308 -71 ct 295 -47 277 -29 254 -15 ct 
230 -2 204 4 177 4 ct 132 4 96 -10 68 -39 ct 40 -69 26 -111 26 -165 ct p
84 -166 m  84 -126 93 -97 110 -78 ct 128 -58 150 -49 177 -49 ct 203 -49 225 -58 243 -78 ct 
260 -97 269 -127 269 -167 ct 269 -205 260 -234 242 -253 ct 225 -272 203 -282 177 -282 ct 
150 -282 128 -273 110 -253 ct 93 -234 84 -205 84 -166 ct p ef
450 128 m  393 128 l  393 -331 l  450 -331 l  450 -276 l  462 -296 475 -311 490 -320 ct 
504 -330 522 -335 543 -335 ct 571 -335 595 -328 616 -314 ct 637 -299 653 -279 663 -253 ct 
674 -227 679 -199 679 -168 ct 679 -135 673 -105 661 -78 ct 649 -51 632 -31 609 -17 ct 
586 -3 562 4 536 4 ct 518 4 501 0 486 -9 ct 472 -18 459 -30 450 -44 ct 450 128 l 
p
450 -163 m  450 -124 458 -95 475 -76 ct 491 -58 511 -49 535 -49 ct 559 -49 579 -58 596 -77 ct 
613 -97 622 -127 622 -167 ct 622 -205 614 -234 597 -253 ct 580 -273 560 -282 537 -282 ct 
514 -282 494 -272 476 -252 ct 459 -231 450 -202 450 -163 ct p ef
974 -106 m  1030 -97 l  1021 -65 1004 -40 980 -22 ct 955 -4 924 4 885 4 ct 837 4 799 -10 770 -39 ct 
742 -69 728 -110 728 -163 ct 728 -217 742 -260 771 -290 ct 800 -320 837 -335 882 -335 ct 
926 -335 962 -320 990 -290 ct 1018 -261 1032 -219 1032 -165 ct 1032 -161 1032 -156 1032 -150 ct 
785 -150 l  787 -117 798 -92 817 -75 ct 835 -57 858 -49 886 -49 ct 907 -49 925 -53 939 -62 ct 
954 -71 966 -86 974 -106 ct p
785 -203 m  975 -203 l  972 -226 965 -244 953 -255 ct 935 -273 911 -282 882 -282 ct 
856 -282 833 -275 815 -261 ct 797 -246 787 -227 785 -203 ct p ef
1160 0 m  1103 0 l  1103 -331 l  1152 -331 l  1152 -283 l  1164 -304 1176 -318 1187 -325 ct 
1198 -332 1210 -335 1223 -335 ct 1241 -335 1260 -330 1279 -321 ct 1260 -269 l 
1247 -278 1234 -282 1221 -282 ct 1209 -282 1199 -279 1189 -271 ct 1180 -264 1173 -253 1169 -240 ct 
1163 -220 1160 -198 1160 -174 ct 1160 0 l  p ef
1522 -40 m  1502 -24 1483 -12 1465 -6 ct 1446 1 1427 4 1406 4 ct 1371 4 1344 -4 1325 -22 ct 
1307 -39 1297 -61 1297 -88 ct 1297 -104 1301 -118 1308 -131 ct 1315 -144 1324 -154 1336 -162 ct 
1347 -170 1360 -176 1374 -180 ct 1385 -183 1401 -186 1422 -188 ct 1465 -194 1497 -200 1518 -207 ct 
1518 -214 1518 -219 1518 -221 ct 1518 -242 1513 -256 1503 -265 ct 1490 -276 1470 -282 1444 -282 ct 
1419 -282 1401 -278 1390 -270 ct 1378 -261 1369 -246 1364 -225 ct 1306 -234 l 
1311 -257 1319 -276 1331 -290 ct 1342 -305 1358 -316 1379 -323 ct 1401 -331 1425 -335 1453 -335 ct 
1481 -335 1504 -332 1521 -325 ct 1539 -318 1552 -310 1560 -300 ct 1568 -289 1574 -276 1577 -261 ct 
1579 -251 1580 -235 1580 -212 ct 1580 -143 l  1580 -94 1581 -62 1583 -46 ct 
1586 -30 1590 -15 1597 0 ct 1540 0 l  1531 -11 1525 -25 1522 -40 ct p
1518 -138 m  1518 -154 l  1498 -148 1469 -142 1430 -137 ct 1408 -134 1393 -131 1383 -128 ct 
1374 -124 1367 -120 1362 -113 ct 1357 -106 1355 -99 1355 -91 ct 1355 -79 1360 -69 1371 -61 ct 
1382 -53 1398 -49 1419 -49 ct 1439 -49 1457 -53 1474 -61 ct 1490 -70 1501 -81 1509 -94 ct 
1515 -104 1518 -119 1518 -138 ct p ef
1787 -50 m  1796 -1 l  1780 3 1766 4 1754 4 ct 1734 4 1718 1 1707 -5 ct 1696 -11 1688 -19 1684 -29 ct 
1679 -40 1677 -61 1677 -94 ct 1677 -278 l  1637 -278 l  1637 -331 l  1677 -331 l 
1677 -412 l  1734 -446 l  1734 -331 l  1787 -331 l  1787 -278 l  1734 -278 l 
1734 -92 l  1734 -77 1735 -67 1737 -63 ct 1739 -58 1742 -55 1746 -52 ct 1750 -50 1756 -49 1764 -49 ct 
1770 -49 1778 -49 1787 -50 ct p ef
1827 -165 m  1827 -226 1844 -270 1877 -299 ct 1904 -323 1938 -335 1978 -335 ct 
2022 -335 2057 -321 2085 -291 ct 2113 -262 2127 -222 2127 -170 ct 2127 -128 2121 -95 2109 -71 ct 
2096 -47 2078 -29 2055 -15 ct 2031 -2 2005 4 1978 4 ct 1933 4 1897 -10 1869 -39 ct 
1841 -69 1827 -111 1827 -165 ct p
1885 -166 m  1885 -126 1894 -97 1911 -78 ct 1929 -58 1951 -49 1978 -49 ct 2004 -49 2026 -58 2044 -78 ct 
2061 -97 2070 -127 2070 -167 ct 2070 -205 2061 -234 2043 -253 ct 2026 -272 2004 -282 1978 -282 ct 
1951 -282 1929 -273 1911 -253 ct 1894 -234 1885 -205 1885 -166 ct p ef
2255 0 m  2198 0 l  2198 -331 l  2247 -331 l  2247 -283 l  2259 -304 2271 -318 2282 -325 ct 
2293 -332 2305 -335 2318 -335 ct 2336 -335 2355 -330 2374 -321 ct 2355 -269 l 
2342 -278 2329 -282 2316 -282 ct 2304 -282 2294 -279 2284 -271 ct 2275 -264 2268 -253 2264 -240 ct 
2258 -220 2255 -198 2255 -174 ct 2255 0 l  p ef
2396 -119 m  2453 -128 l  2459 -98 2470 -77 2484 -64 ct 2498 -51 2516 -44 2539 -44 ct 
2566 -44 2588 -53 2604 -71 ct 2621 -88 2630 -110 2630 -136 ct 2630 -161 2621 -182 2605 -198 ct 
2589 -214 2569 -222 2544 -222 ct 2533 -222 2521 -220 2506 -216 ct 2512 -269 l 
2515 -269 2518 -268 2520 -268 ct 2543 -268 2563 -274 2581 -286 ct 2599 -297 2608 -315 2608 -339 ct 
2608 -358 2601 -374 2588 -387 ct 2574 -399 2557 -406 2536 -406 ct 2515 -406 2498 -399 2484 -387 ct 
2470 -374 2462 -356 2458 -331 ct 2400 -340 l  2407 -377 2422 -407 2446 -427 ct 
2470 -448 2499 -459 2534 -459 ct 2559 -459 2581 -453 2602 -443 ct 2622 -432 2638 -418 2649 -399 ct 
2659 -381 2665 -362 2665 -341 ct 2665 -322 2660 -304 2649 -288 ct 2639 -272 2623 -259 2602 -250 ct 
2629 -243 2650 -230 2665 -210 ct 2680 -190 2687 -166 2687 -136 ct 2687 -95 2673 -61 2644 -33 ct 
2616 -5 2580 9 2537 9 ct 2498 9 2466 -3 2440 -27 ct 2414 -51 2399 -81 2396 -119 ct 
p ef
pom

1.000 1.000 1.000 c 4800 3641 m  8560 3641 l  8560 4658 l  4800 4658 l 
4800 3641 l  4800 3641 l  p ef
0.003 0.003 0.003 c 4800 3641 m  8559 3641 l  8559 4658 l  4800 4658 l  4800 3641 l 
4800 3641 l  pc
pum
6009 4370 t
22 -101 m  79 -110 l  82 -90 91 -75 104 -64 ct 118 -54 137 -49 161 -49 ct 186 -49 204 -53 216 -62 ct 
228 -71 234 -82 234 -94 ct 234 -105 227 -114 214 -120 ct 204 -125 186 -130 159 -137 ct 
123 -147 96 -156 80 -164 ct 64 -171 52 -182 43 -195 ct 35 -209 31 -223 31 -240 ct 
31 -255 34 -268 41 -281 ct 47 -293 56 -304 67 -312 ct 75 -318 87 -324 101 -328 ct 
116 -333 131 -335 148 -335 ct 173 -335 194 -331 213 -323 ct 232 -316 246 -305 255 -292 ct 
264 -278 270 -260 273 -238 ct 216 -229 l  214 -246 207 -259 197 -268 ct 186 -278 171 -282 152 -282 ct 
129 -282 113 -279 103 -271 ct 93 -264 88 -255 88 -245 ct 88 -239 90 -234 94 -229 ct 
98 -223 105 -219 113 -216 ct 118 -214 133 -210 157 -203 ct 193 -193 219 -184 236 -177 ct 
253 -171 267 -161 276 -148 ct 286 -135 291 -119 291 -100 ct 291 -81 286 -64 275 -47 ct 
264 -31 249 -18 229 -9 ct 209 0 186 4 161 4 ct 118 4 86 -4 64 -22 ct 42 -40 28 -66 22 -101 ct 
p ef
419 -397 m  362 -397 l  362 -454 l  419 -454 l  419 -397 l  p
419 0 m  362 0 l  362 -331 l  419 -331 l  419 0 l  p ef
622 -50 m  631 -1 l  615 3 601 4 589 4 ct 569 4 553 1 542 -5 ct 531 -11 523 -19 519 -29 ct 
514 -40 512 -61 512 -94 ct 512 -278 l  472 -278 l  472 -331 l  512 -331 l 
512 -412 l  569 -446 l  569 -331 l  622 -331 l  622 -278 l  569 -278 l 
569 -92 l  569 -77 570 -67 572 -63 ct 574 -58 577 -55 581 -52 ct 585 -50 591 -49 599 -49 ct 
605 -49 613 -49 622 -50 ct p ef
903 -106 m  959 -97 l  950 -65 933 -40 909 -22 ct 884 -4 853 4 814 4 ct 766 4 728 -10 699 -39 ct 
671 -69 657 -110 657 -163 ct 657 -217 671 -260 700 -290 ct 729 -320 766 -335 811 -335 ct 
855 -335 891 -320 919 -290 ct 947 -261 961 -219 961 -165 ct 961 -161 961 -156 961 -150 ct 
714 -150 l  716 -117 727 -92 746 -75 ct 764 -57 787 -49 815 -49 ct 836 -49 854 -53 868 -62 ct 
883 -71 895 -86 903 -106 ct p
714 -203 m  904 -203 l  901 -226 894 -244 882 -255 ct 864 -273 840 -282 811 -282 ct 
785 -282 762 -275 744 -261 ct 726 -246 716 -227 714 -203 ct p ef
1226 -459 m  1226 0 l  1169 0 l  1169 -357 l  1156 -345 1138 -332 1117 -319 ct 
1095 -306 1076 -296 1059 -290 ct 1059 -344 l  1090 -359 1117 -377 1140 -398 ct 
1163 -418 1180 -439 1189 -459 ct 1226 -459 l  p ef
pom

1.000 1.000 1.000 c 14520 3642 m  18279 3642 l  18279 4659 l  14520 4659 l 
14520 3642 l  14520 3642 l  p ef
0.003 0.003 0.003 c 14519 3642 m  18279 3642 l  18279 4658 l  14519 4658 l 
14519 3642 l  14519 3642 l  pc
pum
15729 4371 t
22 -101 m  79 -110 l  82 -90 91 -75 104 -64 ct 118 -54 137 -49 161 -49 ct 186 -49 204 -53 216 -62 ct 
228 -71 234 -82 234 -94 ct 234 -105 227 -114 214 -120 ct 204 -125 186 -130 159 -137 ct 
123 -147 96 -156 80 -164 ct 64 -171 52 -182 43 -195 ct 35 -209 31 -223 31 -240 ct 
31 -255 34 -268 41 -281 ct 47 -293 56 -304 67 -312 ct 75 -318 87 -324 101 -328 ct 
116 -333 131 -335 148 -335 ct 173 -335 194 -331 213 -323 ct 232 -316 246 -305 255 -292 ct 
264 -278 270 -260 273 -238 ct 216 -229 l  214 -246 207 -259 197 -268 ct 186 -278 171 -282 152 -282 ct 
129 -282 113 -279 103 -271 ct 93 -264 88 -255 88 -245 ct 88 -239 90 -234 94 -229 ct 
98 -223 105 -219 113 -216 ct 118 -214 133 -210 157 -203 ct 193 -193 219 -184 236 -177 ct 
253 -171 267 -161 276 -148 ct 286 -135 291 -119 291 -100 ct 291 -81 286 -64 275 -47 ct 
264 -31 249 -18 229 -9 ct 209 0 186 4 161 4 ct 118 4 86 -4 64 -22 ct 42 -40 28 -66 22 -101 ct 
p ef
419 -397 m  362 -397 l  362 -454 l  419 -454 l  419 -397 l  p
419 0 m  362 0 l  362 -331 l  419 -331 l  419 0 l  p ef
622 -50 m  631 -1 l  615 3 601 4 589 4 ct 569 4 553 1 542 -5 ct 531 -11 523 -19 519 -29 ct 
514 -40 512 -61 512 -94 ct 512 -278 l  472 -278 l  472 -331 l  512 -331 l 
512 -412 l  569 -446 l  569 -331 l  622 -331 l  622 -278 l  569 -278 l 
569 -92 l  569 -77 570 -67 572 -63 ct 574 -58 577 -55 581 -52 ct 585 -50 591 -49 599 -49 ct 
605 -49 613 -49 622 -50 ct p ef
903 -106 m  959 -97 l  950 -65 933 -40 909 -22 ct 884 -4 853 4 814 4 ct 766 4 728 -10 699 -39 ct 
671 -69 657 -110 657 -163 ct 657 -217 671 -260 700 -290 ct 729 -320 766 -335 811 -335 ct 
855 -335 891 -320 919 -290 ct 947 -261 961 -219 961 -165 ct 961 -161 961 -156 961 -150 ct 
714 -150 l  716 -117 727 -92 746 -75 ct 764 -57 787 -49 815 -49 ct 836 -49 854 -53 868 -62 ct 
883 -71 895 -86 903 -106 ct p
714 -203 m  904 -203 l  901 -226 894 -244 882 -255 ct 864 -273 840 -282 811 -282 ct 
785 -282 762 -275 744 -261 ct 726 -246 716 -227 714 -203 ct p ef
1082 -57 m  1306 -57 l  1306 0 l  1006 0 l  1005 -14 1007 -27 1012 -40 ct 
1019 -62 1031 -82 1047 -102 ct 1064 -123 1087 -145 1119 -171 ct 1167 -211 1200 -243 1218 -266 ct 
1235 -288 1244 -310 1244 -331 ct 1244 -352 1236 -370 1220 -384 ct 1205 -398 1185 -406 1159 -406 ct 
1133 -406 1112 -398 1096 -383 ct 1080 -369 1072 -348 1072 -322 ct 1014 -331 l 
1018 -372 1033 -404 1058 -426 ct 1084 -448 1118 -459 1161 -459 ct 1204 -459 1238 -446 1263 -422 ct 
1288 -398 1301 -368 1301 -332 ct 1301 -313 1298 -295 1291 -278 ct 1283 -260 1272 -241 1255 -222 ct 
1239 -202 1211 -176 1172 -143 ct 1139 -115 1117 -97 1107 -87 ct 1097 -77 1089 -67 1082 -57 ct 
p ef
pom

1.000 1.000 1.000 c 8900 1543 m  12659 1543 l  12659 2559 l  8900 2559 l 
8900 1543 l  8900 1543 l  p ef
0.003 0.003 0.003 c 8899 1542 m  12659 1542 l  12659 2559 l  8899 2559 l  8899 1542 l 
8899 1542 l  pc
pum
10233 2272 t
101 0 m  44 0 l  44 -331 l  93 -331 l  93 -283 l  105 -304 117 -318 128 -325 ct 
139 -332 151 -335 164 -335 ct 182 -335 201 -330 220 -321 ct 201 -269 l  188 -278 175 -282 162 -282 ct 
150 -282 140 -279 130 -271 ct 121 -264 114 -253 110 -240 ct 104 -220 101 -198 101 -174 ct 
101 0 l  p ef
238 -165 m  238 -226 255 -270 288 -299 ct 315 -323 349 -335 389 -335 ct 433 -335 468 -321 496 -291 ct 
524 -262 538 -222 538 -170 ct 538 -128 532 -95 520 -71 ct 507 -47 489 -29 466 -15 ct 
442 -2 416 4 389 4 ct 344 4 308 -10 280 -39 ct 252 -69 238 -111 238 -165 ct p
296 -166 m  296 -126 305 -97 322 -78 ct 340 -58 362 -49 389 -49 ct 415 -49 437 -58 455 -78 ct 
472 -97 481 -127 481 -167 ct 481 -205 472 -234 454 -253 ct 437 -272 415 -282 389 -282 ct 
362 -282 340 -273 322 -253 ct 305 -234 296 -205 296 -166 ct p ef
591 -165 m  591 -226 608 -270 641 -299 ct 668 -323 702 -335 742 -335 ct 786 -335 821 -321 849 -291 ct 
877 -262 891 -222 891 -170 ct 891 -128 885 -95 873 -71 ct 860 -47 842 -29 819 -15 ct 
795 -2 769 4 742 4 ct 697 4 661 -10 633 -39 ct 605 -69 591 -111 591 -165 ct p
649 -166 m  649 -126 658 -97 675 -78 ct 693 -58 715 -49 742 -49 ct 768 -49 790 -58 808 -78 ct 
825 -97 834 -127 834 -167 ct 834 -205 825 -234 807 -253 ct 790 -272 768 -282 742 -282 ct 
715 -282 693 -273 675 -253 ct 658 -234 649 -205 649 -166 ct p ef
1082 -50 m  1091 -1 l  1075 3 1061 4 1049 4 ct 1029 4 1013 1 1002 -5 ct 991 -11 983 -19 979 -29 ct 
974 -40 972 -61 972 -94 ct 972 -278 l  932 -278 l  932 -331 l  972 -331 l 
972 -412 l  1029 -446 l  1029 -331 l  1082 -331 l  1082 -278 l  1029 -278 l 
1029 -92 l  1029 -77 1030 -67 1032 -63 ct 1034 -58 1037 -55 1041 -52 ct 1045 -50 1051 -49 1059 -49 ct 
1065 -49 1073 -49 1082 -50 ct p ef
pom

6680 3641 m  6680 3100 l  10780 3100 l  10780 2558 l  ps
10780 2558 m  10780 3101 l  16399 3101 l  16399 3642 l  ps
6680 4657 m  6680 5198 l  3781 5198 l  3781 5739 l  ps
6680 4657 m  6680 5199 l  9480 5199 l  9480 5740 l  ps
16400 4658 m  16400 5741 l  ps
2406 7838 m  2406 7297 l  3781 7297 l  3781 6755 l  ps
3781 6755 m  3781 7298 l  5227 7298 l  5227 7839 l  ps
9480 6756 m  9480 7298 l  8020 7298 l  8020 7839 l  ps
9480 6756 m  9480 7298 l  10814 7298 l  10814 7838 l  ps
16400 6757 m  16400 7299 l  13607 7299 l  13607 7839 l  ps
16400 6757 m  16400 7299 l  16401 7299 l  16401 7840 l  ps
16400 6757 m  16400 7299 l  19194 7299 l  19194 7840 l  ps
2406 8854 m  2406 9836 l  ps
5227 8855 m  5227 9837 l  ps
8020 8855 m  8020 9837 l  ps
10814 8854 m  10814 9836 l  ps
13607 8855 m  13607 9837 l  ps
16401 8856 m  16401 9838 l  ps
19195 8856 m  19195 9838 l  ps
0 9316 t 
pom
count op_count sub {pop} repeat countdictstack dict_count sub {end} repeat b4_inc_state restore
%%PageTrailer
%%Trailer
%%EOF
